(kicad_pcb (version 20171130) (host pcbnew "(5.0.0-3-g5ebb6b6)")

  (general
    (thickness 1.6)
    (drawings 21)
    (tracks 0)
    (zones 0)
    (modules 1)
    (nets 2)
  )

  (page B)
  (title_block
    (title "Model II Magic Bus Device")
    (date 2018-12-22)
    (rev DRAFT)
    (company "Mark J. Blair <nf6x@nf6x.net>")
  )

  (layers
    (0 F.Cu signal)
    (1 In1.Cu signal)
    (2 In2.Cu signal)
    (31 B.Cu signal)
    (34 B.Paste user)
    (35 F.Paste user)
    (36 B.SilkS user)
    (37 F.SilkS user)
    (38 B.Mask user hide)
    (39 F.Mask user hide)
    (40 Dwgs.User user)
    (41 Cmts.User user)
    (42 Eco1.User user)
    (43 Eco2.User user)
    (44 Edge.Cuts user)
    (45 Margin user)
    (46 B.CrtYd user)
    (47 F.CrtYd user)
    (48 B.Fab user)
    (49 F.Fab user)
  )

  (setup
    (last_trace_width 0.127)
    (trace_clearance 0.127)
    (zone_clearance 0.508)
    (zone_45_only no)
    (trace_min 0.1524)
    (segment_width 0.2)
    (edge_width 0.15)
    (via_size 0.508)
    (via_drill 0.254)
    (via_min_size 0.508)
    (via_min_drill 0.254)
    (uvia_size 0.3)
    (uvia_drill 0.1)
    (uvias_allowed no)
    (uvia_min_size 0.2)
    (uvia_min_drill 0.1)
    (pcb_text_width 0.3)
    (pcb_text_size 1.5 1.5)
    (mod_edge_width 0.15)
    (mod_text_size 1 1)
    (mod_text_width 0.15)
    (pad_size 1.524 1.524)
    (pad_drill 0.762)
    (pad_to_mask_clearance 0.2)
    (aux_axis_origin 101.6 203.2)
    (grid_origin 101.6 203.2)
    (visible_elements FFFFFF7F)
    (pcbplotparams
      (layerselection 0x010fc_ffffffff)
      (usegerberextensions false)
      (usegerberattributes false)
      (usegerberadvancedattributes false)
      (creategerberjobfile false)
      (excludeedgelayer true)
      (linewidth 0.100000)
      (plotframeref false)
      (viasonmask false)
      (mode 1)
      (useauxorigin false)
      (hpglpennumber 1)
      (hpglpenspeed 20)
      (hpglpendiameter 15.000000)
      (psnegative false)
      (psa4output false)
      (plotreference true)
      (plotvalue true)
      (plotinvisibletext false)
      (padsonsilk false)
      (subtractmaskfromsilk false)
      (outputformat 1)
      (mirror false)
      (drillshape 1)
      (scaleselection 1)
      (outputdirectory ""))
  )

  (net 0 "")
  (net 1 GND)

  (net_class Default "This is the default net class."
    (clearance 0.127)
    (trace_width 0.127)
    (via_dia 0.508)
    (via_drill 0.254)
    (uvia_dia 0.3)
    (uvia_drill 0.1)
    (add_net GND)
  )

  (module Connector_Module:TRS-80_Model-II_CardEdge locked (layer F.Cu) (tedit 5C1F15B4) (tstamp 5C1F1F29)
    (at 254.3175 203.2)
    (path /5C1F1E51)
    (solder_mask_margin -0.00254)
    (attr virtual)
    (fp_text reference P1 (at 61.976 -12.7) (layer F.SilkS)
      (effects (font (size 1 1) (thickness 0.15)))
    )
    (fp_text value TRS-80_Model-II_CardEdge (at 0 -2.54) (layer F.Fab) hide
      (effects (font (size 1 1) (thickness 0.15)))
    )
    (fp_text user %R (at 0 -5.08) (layer F.Fab)
      (effects (font (size 1 1) (thickness 0.15)))
    )
    (fp_text user 2 (at 61.9125 -10.795) (layer F.SilkS)
      (effects (font (size 1 1) (thickness 0.15)))
    )
    (fp_text user 80 (at -61.9125 -10.795) (layer F.SilkS)
      (effects (font (size 1 1) (thickness 0.15)))
    )
    (fp_text user 1 (at 61.9125 -10.795) (layer B.SilkS)
      (effects (font (size 1 1) (thickness 0.15)) (justify mirror))
    )
    (fp_text user 79 (at -61.9125 -10.795) (layer B.SilkS)
      (effects (font (size 1 1) (thickness 0.15)) (justify mirror))
    )
    (pad 40 smd rect (at 1.5875 -4.7625) (size 1.778 9.525) (layers F.Cu F.Mask))
    (pad 38 smd rect (at 4.7625 -4.7625) (size 1.778 9.525) (layers F.Cu F.Mask))
    (pad 36 smd rect (at 7.9375 -4.7625) (size 1.778 9.525) (layers F.Cu F.Mask))
    (pad 34 smd rect (at 11.1125 -4.7625) (size 1.778 9.525) (layers F.Cu F.Mask))
    (pad 32 smd rect (at 14.2875 -4.7625) (size 1.778 9.525) (layers F.Cu F.Mask))
    (pad 30 smd rect (at 17.4625 -4.7625) (size 1.778 9.525) (layers F.Cu F.Mask))
    (pad 28 smd rect (at 20.6375 -4.7625) (size 1.778 9.525) (layers F.Cu F.Mask))
    (pad 26 smd rect (at 23.8125 -4.7625) (size 1.778 9.525) (layers F.Cu F.Mask))
    (pad 24 smd rect (at 26.9875 -4.7625) (size 1.778 9.525) (layers F.Cu F.Mask))
    (pad 22 smd rect (at 30.1625 -4.7625) (size 1.778 9.525) (layers F.Cu F.Mask))
    (pad 20 smd rect (at 33.3375 -4.7625) (size 1.778 9.525) (layers F.Cu F.Mask))
    (pad 18 smd rect (at 36.5125 -4.7625) (size 1.778 9.525) (layers F.Cu F.Mask))
    (pad 16 smd rect (at 39.6875 -4.7625) (size 1.778 9.525) (layers F.Cu F.Mask))
    (pad 14 smd rect (at 42.8625 -4.7625) (size 1.778 9.525) (layers F.Cu F.Mask))
    (pad 12 smd rect (at 46.0375 -4.7625) (size 1.778 9.525) (layers F.Cu F.Mask))
    (pad 10 smd rect (at 49.2125 -4.7625) (size 1.778 9.525) (layers F.Cu F.Mask))
    (pad 8 smd rect (at 52.3875 -4.7625) (size 1.778 9.525) (layers F.Cu F.Mask)
      (net 1 GND))
    (pad 6 smd rect (at 55.5625 -4.7625) (size 1.778 9.525) (layers F.Cu F.Mask))
    (pad 4 smd rect (at 58.7375 -4.7625) (size 1.778 9.525) (layers F.Cu F.Mask)
      (net 1 GND))
    (pad 2 smd rect (at 61.9125 -4.7625) (size 1.778 9.525) (layers F.Cu F.Mask))
    (pad 64 smd rect (at -36.5125 -4.7625) (size 1.778 9.525) (layers F.Cu F.Mask))
    (pad 58 smd rect (at -26.9875 -4.7625) (size 1.778 9.525) (layers F.Cu F.Mask))
    (pad 46 smd rect (at -7.9375 -4.7625) (size 1.778 9.525) (layers F.Cu F.Mask))
    (pad 74 smd rect (at -52.3875 -4.7625) (size 1.778 9.525) (layers F.Cu F.Mask)
      (net 1 GND))
    (pad 78 smd rect (at -58.7375 -4.7625) (size 1.778 9.525) (layers F.Cu F.Mask))
    (pad 66 smd rect (at -39.6875 -4.7625) (size 1.778 9.525) (layers F.Cu F.Mask))
    (pad 70 smd rect (at -46.0375 -4.7625) (size 1.778 9.525) (layers F.Cu F.Mask)
      (net 1 GND))
    (pad 42 smd rect (at -1.5875 -4.7625) (size 1.778 9.525) (layers F.Cu F.Mask))
    (pad 54 smd rect (at -20.6375 -4.7625) (size 1.778 9.525) (layers F.Cu F.Mask))
    (pad 48 smd rect (at -11.1125 -4.7625) (size 1.778 9.525) (layers F.Cu F.Mask))
    (pad 60 smd rect (at -30.1625 -4.7625) (size 1.778 9.525) (layers F.Cu F.Mask))
    (pad 80 smd rect (at -61.9125 -4.7625) (size 1.778 9.525) (layers F.Cu F.Mask)
      (net 1 GND))
    (pad 56 smd rect (at -23.8125 -4.7625) (size 1.778 9.525) (layers F.Cu F.Mask))
    (pad 52 smd rect (at -17.4625 -4.7625) (size 1.778 9.525) (layers F.Cu F.Mask))
    (pad 62 smd rect (at -33.3375 -4.7625) (size 1.778 9.525) (layers F.Cu F.Mask))
    (pad 76 smd rect (at -55.5625 -4.7625) (size 1.778 9.525) (layers F.Cu F.Mask))
    (pad 68 smd rect (at -42.8625 -4.7625) (size 1.778 9.525) (layers F.Cu F.Mask))
    (pad 72 smd rect (at -49.2125 -4.7625) (size 1.778 9.525) (layers F.Cu F.Mask))
    (pad 44 smd rect (at -4.7625 -4.7625) (size 1.778 9.525) (layers F.Cu F.Mask))
    (pad 50 smd rect (at -14.2875 -4.7625) (size 1.778 9.525) (layers F.Cu F.Mask)
      (net 1 GND))
    (pad 1 smd rect (at 61.9125 -4.7625) (size 1.778 9.525) (layers B.Cu B.Mask))
    (pad 3 smd rect (at 58.7375 -4.7625) (size 1.778 9.525) (layers B.Cu B.Mask)
      (net 1 GND))
    (pad 5 smd rect (at 55.5625 -4.7625) (size 1.778 9.525) (layers B.Cu B.Mask))
    (pad 7 smd rect (at 52.3875 -4.7625) (size 1.778 9.525) (layers B.Cu B.Mask)
      (net 1 GND))
    (pad 9 smd rect (at 49.2125 -4.7625) (size 1.778 9.525) (layers B.Cu B.Mask))
    (pad 15 smd rect (at 39.6875 -4.7625) (size 1.778 9.525) (layers B.Cu B.Mask))
    (pad 13 smd rect (at 42.8625 -4.7625) (size 1.778 9.525) (layers B.Cu B.Mask))
    (pad 11 smd rect (at 46.0375 -4.7625) (size 1.778 9.525) (layers B.Cu B.Mask))
    (pad 19 smd rect (at 33.3375 -4.7625) (size 1.778 9.525) (layers B.Cu B.Mask))
    (pad 17 smd rect (at 36.5125 -4.7625) (size 1.778 9.525) (layers B.Cu B.Mask))
    (pad 21 smd rect (at 30.1625 -4.7625) (size 1.778 9.525) (layers B.Cu B.Mask))
    (pad 23 smd rect (at 26.9875 -4.7625) (size 1.778 9.525) (layers B.Cu B.Mask))
    (pad 29 smd rect (at 17.4625 -4.7625) (size 1.778 9.525) (layers B.Cu B.Mask))
    (pad 25 smd rect (at 23.8125 -4.7625) (size 1.778 9.525) (layers B.Cu B.Mask))
    (pad 27 smd rect (at 20.6375 -4.7625) (size 1.778 9.525) (layers B.Cu B.Mask))
    (pad 31 smd rect (at 14.2875 -4.7625) (size 1.778 9.525) (layers B.Cu B.Mask))
    (pad 33 smd rect (at 11.1125 -4.7625) (size 1.778 9.525) (layers B.Cu B.Mask))
    (pad 39 smd rect (at 1.5875 -4.7625) (size 1.778 9.525) (layers B.Cu B.Mask))
    (pad 35 smd rect (at 7.9375 -4.7625) (size 1.778 9.525) (layers B.Cu B.Mask))
    (pad 37 smd rect (at 4.7625 -4.7625) (size 1.778 9.525) (layers B.Cu B.Mask))
    (pad 45 smd rect (at -7.9375 -4.7625) (size 1.778 9.525) (layers B.Cu B.Mask))
    (pad 43 smd rect (at -4.7625 -4.7625) (size 1.778 9.525) (layers B.Cu B.Mask))
    (pad 41 smd rect (at -1.5875 -4.7625) (size 1.778 9.525) (layers B.Cu B.Mask))
    (pad 49 smd rect (at -14.2875 -4.7625) (size 1.778 9.525) (layers B.Cu B.Mask)
      (net 1 GND))
    (pad 61 smd rect (at -33.3375 -4.7625) (size 1.778 9.525) (layers B.Cu B.Mask))
    (pad 63 smd rect (at -36.5125 -4.7625) (size 1.778 9.525) (layers B.Cu B.Mask))
    (pad 69 smd rect (at -46.0375 -4.7625) (size 1.778 9.525) (layers B.Cu B.Mask)
      (net 1 GND))
    (pad 65 smd rect (at -39.6875 -4.7625) (size 1.778 9.525) (layers B.Cu B.Mask))
    (pad 67 smd rect (at -42.8625 -4.7625) (size 1.778 9.525) (layers B.Cu B.Mask))
    (pad 51 smd rect (at -17.4625 -4.7625) (size 1.778 9.525) (layers B.Cu B.Mask))
    (pad 47 smd rect (at -11.1125 -4.7625) (size 1.778 9.525) (layers B.Cu B.Mask))
    (pad 71 smd rect (at -49.2125 -4.7625) (size 1.778 9.525) (layers B.Cu B.Mask))
    (pad 73 smd rect (at -52.3875 -4.7625) (size 1.778 9.525) (layers B.Cu B.Mask)
      (net 1 GND))
    (pad 79 smd rect (at -61.9125 -4.7625) (size 1.778 9.525) (layers B.Cu B.Mask)
      (net 1 GND))
    (pad 75 smd rect (at -55.5625 -4.7625) (size 1.778 9.525) (layers B.Cu B.Mask))
    (pad 77 smd rect (at -58.7375 -4.7625) (size 1.778 9.525) (layers B.Cu B.Mask))
    (pad 53 smd rect (at -20.6375 -4.7625) (size 1.778 9.525) (layers B.Cu B.Mask))
    (pad 59 smd rect (at -30.1625 -4.7625) (size 1.778 9.525) (layers B.Cu B.Mask))
    (pad 55 smd rect (at -23.8125 -4.7625) (size 1.778 9.525) (layers B.Cu B.Mask))
    (pad 57 smd rect (at -26.9875 -4.7625) (size 1.778 9.525) (layers B.Cu B.Mask))
  )

  (dimension 36.195 (width 0.3) (layer F.Fab)
    (gr_text "1.4250 in" (at 337.5025 210.38) (layer F.Fab)
      (effects (font (size 1.5 1.5) (thickness 0.3)))
    )
    (feature1 (pts (xy 355.6 202.565) (xy 355.6 208.866421)))
    (feature2 (pts (xy 319.405 202.565) (xy 319.405 208.866421)))
    (crossbar (pts (xy 319.405 208.28) (xy 355.6 208.28)))
    (arrow1a (pts (xy 355.6 208.28) (xy 354.473496 208.866421)))
    (arrow1b (pts (xy 355.6 208.28) (xy 354.473496 207.693579)))
    (arrow2a (pts (xy 319.405 208.28) (xy 320.531504 208.866421)))
    (arrow2b (pts (xy 319.405 208.28) (xy 320.531504 207.693579)))
  )
  (dimension 87.63 (width 0.3) (layer F.Fab)
    (gr_text "3.4500 in" (at 145.415 210.38) (layer F.Fab)
      (effects (font (size 1.5 1.5) (thickness 0.3)))
    )
    (feature1 (pts (xy 101.6 202.565) (xy 101.6 208.866421)))
    (feature2 (pts (xy 189.23 202.565) (xy 189.23 208.866421)))
    (crossbar (pts (xy 189.23 208.28) (xy 101.6 208.28)))
    (arrow1a (pts (xy 101.6 208.28) (xy 102.726504 207.693579)))
    (arrow1b (pts (xy 101.6 208.28) (xy 102.726504 208.866421)))
    (arrow2a (pts (xy 189.23 208.28) (xy 188.103496 207.693579)))
    (arrow2b (pts (xy 189.23 208.28) (xy 188.103496 208.866421)))
  )
  (dimension 130.175 (width 0.3) (layer F.Fab)
    (gr_text "5.1250 in" (at 254.3175 210.379999) (layer F.Fab)
      (effects (font (size 1.5 1.5) (thickness 0.3)))
    )
    (feature1 (pts (xy 319.405 202.565) (xy 319.405 208.86642)))
    (feature2 (pts (xy 189.23 202.565) (xy 189.23 208.86642)))
    (crossbar (pts (xy 189.23 208.279999) (xy 319.405 208.279999)))
    (arrow1a (pts (xy 319.405 208.279999) (xy 318.278496 208.86642)))
    (arrow1b (pts (xy 319.405 208.279999) (xy 318.278496 207.693578)))
    (arrow2a (pts (xy 189.23 208.279999) (xy 190.356504 208.86642)))
    (arrow2b (pts (xy 189.23 208.279999) (xy 190.356504 207.693578)))
  )
  (gr_poly (pts (xy 188.595 193.675) (xy 188.595 203.2) (xy 320.04 203.2) (xy 320.04 193.675)) (layer B.Mask) (width 0.15) (tstamp 5C1F2910))
  (gr_poly (pts (xy 188.595 193.675) (xy 188.595 203.2) (xy 320.04 203.2) (xy 320.04 193.675)) (layer F.Mask) (width 0.15))
  (gr_arc (start 188.595 194.31) (end 189.23 194.31) (angle -90) (layer Edge.Cuts) (width 0.15))
  (gr_arc (start 320.04 194.31) (end 320.04 193.675) (angle -90) (layer Edge.Cuts) (width 0.15))
  (gr_line (start 101.6 76.2) (end 101.6 190.5) (layer Edge.Cuts) (width 0.15))
  (gr_line (start 107.95 69.85) (end 101.6 76.2) (layer Edge.Cuts) (width 0.15))
  (gr_line (start 340.995 69.85) (end 107.95 69.85) (layer Edge.Cuts) (width 0.15))
  (gr_line (start 355.6 95.25) (end 340.995 69.85) (layer Edge.Cuts) (width 0.15))
  (gr_line (start 355.6 190.5) (end 355.6 95.25) (layer Edge.Cuts) (width 0.15))
  (gr_line (start 352.425 193.675) (end 355.6 190.5) (layer Edge.Cuts) (width 0.15))
  (gr_line (start 320.04 193.675) (end 352.425 193.675) (layer Edge.Cuts) (width 0.15))
  (gr_line (start 319.405 202.565) (end 319.405 194.31) (layer Edge.Cuts) (width 0.15))
  (gr_line (start 318.77 203.2) (end 319.405 202.565) (layer Edge.Cuts) (width 0.15))
  (gr_line (start 189.865 203.2) (end 318.77 203.2) (layer Edge.Cuts) (width 0.15))
  (gr_line (start 189.23 202.565) (end 189.865 203.2) (layer Edge.Cuts) (width 0.15))
  (gr_line (start 189.23 194.31) (end 189.23 202.565) (layer Edge.Cuts) (width 0.15))
  (gr_line (start 104.775 193.675) (end 188.595 193.675) (layer Edge.Cuts) (width 0.15))
  (gr_line (start 101.6 190.5) (end 104.775 193.675) (layer Edge.Cuts) (width 0.15))

  (zone (net 1) (net_name GND) (layer In1.Cu) (tstamp 0) (hatch edge 0.508)
    (connect_pads (clearance 0.508))
    (min_thickness 0.254)
    (fill yes (arc_segments 16) (thermal_gap 0.508) (thermal_bridge_width 0.508))
    (polygon
      (pts
        (xy 104.775 193.675) (xy 189.23 193.675) (xy 189.23 203.2) (xy 319.405 203.2) (xy 319.405 193.675)
        (xy 352.425 193.675) (xy 355.6 190.5) (xy 355.6 95.25) (xy 340.995 69.85) (xy 107.95 69.85)
        (xy 101.6 76.2) (xy 101.6 190.5)
      )
    )
  )
)
